1ano/2semestre/LSD/Praticas/Aula02/Parte4/simulation/qsim/PEnc4_2Demo.msim.vcd
$comment
	File created using the following command:
		vcd file PEnc4_2Demo.msim.vcd -direction
$end
$date
	Wed Mar  6 15:04:00 2024
$end
$version
	Questa Intel Starter FPGA Edition Version 2021.2
$end
$timescale
	1ps
$end

$scope module penc16_4_vhd_vec_tst $end
$var wire 1 ! decodedIn [15] $end
$var wire 1 " decodedIn [14] $end
$var wire 1 # decodedIn [13] $end
$var wire 1 $ decodedIn [12] $end
$var wire 1 % decodedIn [11] $end
$var wire 1 & decodedIn [10] $end
$var wire 1 ' decodedIn [9] $end
$var wire 1 ( decodedIn [8] $end
$var wire 1 ) decodedIn [7] $end
$var wire 1 * decodedIn [6] $end
$var wire 1 + decodedIn [5] $end
$var wire 1 , decodedIn [4] $end
$var wire 1 - decodedIn [3] $end
$var wire 1 . decodedIn [2] $end
$var wire 1 / decodedIn [1] $end
$var wire 1 0 decodedIn [0] $end
$var wire 1 1 encodedOut [3] $end
$var wire 1 2 encodedOut [2] $end
$var wire 1 3 encodedOut [1] $end
$var wire 1 4 encodedOut [0] $end
$var wire 1 5 validOut $end

$scope module i1 $end
$var wire 1 6 gnd $end
$var wire 1 7 vcc $end
$var wire 1 8 unknown $end
$var wire 1 9 devoe $end
$var wire 1 : devclrn $end
$var wire 1 ; devpor $end
$var wire 1 < ww_devoe $end
$var wire 1 = ww_devclrn $end
$var wire 1 > ww_devpor $end
$var wire 1 ? ww_decodedIn [15] $end
$var wire 1 @ ww_decodedIn [14] $end
$var wire 1 A ww_decodedIn [13] $end
$var wire 1 B ww_decodedIn [12] $end
$var wire 1 C ww_decodedIn [11] $end
$var wire 1 D ww_decodedIn [10] $end
$var wire 1 E ww_decodedIn [9] $end
$var wire 1 F ww_decodedIn [8] $end
$var wire 1 G ww_decodedIn [7] $end
$var wire 1 H ww_decodedIn [6] $end
$var wire 1 I ww_decodedIn [5] $end
$var wire 1 J ww_decodedIn [4] $end
$var wire 1 K ww_decodedIn [3] $end
$var wire 1 L ww_decodedIn [2] $end
$var wire 1 M ww_decodedIn [1] $end
$var wire 1 N ww_decodedIn [0] $end
$var wire 1 O ww_encodedOut [3] $end
$var wire 1 P ww_encodedOut [2] $end
$var wire 1 Q ww_encodedOut [1] $end
$var wire 1 R ww_encodedOut [0] $end
$var wire 1 S ww_validOut $end
$var wire 1 T \encodedOut[0]~output_o\ $end
$var wire 1 U \encodedOut[1]~output_o\ $end
$var wire 1 V \encodedOut[2]~output_o\ $end
$var wire 1 W \encodedOut[3]~output_o\ $end
$var wire 1 X \validOut~output_o\ $end
$var wire 1 Y \decodedIn[0]~input_o\ $end
$var wire 1 Z \decodedIn[12]~input_o\ $end
$var wire 1 [ \decodedIn[13]~input_o\ $end
$var wire 1 \ \decodedIn[10]~input_o\ $end
$var wire 1 ] \decodedIn[8]~input_o\ $end
$var wire 1 ^ \decodedIn[14]~input_o\ $end
$var wire 1 _ \encodedOut~7_combout\ $end
$var wire 1 ` \decodedIn[11]~input_o\ $end
$var wire 1 a \decodedIn[9]~input_o\ $end
$var wire 1 b \encodedOut~6_combout\ $end
$var wire 1 c \decodedIn[7]~input_o\ $end
$var wire 1 d \encodedOut~8_combout\ $end
$var wire 1 e \decodedIn[2]~input_o\ $end
$var wire 1 f \decodedIn[1]~input_o\ $end
$var wire 1 g \decodedIn[3]~input_o\ $end
$var wire 1 h \decodedIn[4]~input_o\ $end
$var wire 1 i \decodedIn[5]~input_o\ $end
$var wire 1 j \encodedOut~4_combout\ $end
$var wire 1 k \encodedOut~5_combout\ $end
$var wire 1 l \decodedIn[6]~input_o\ $end
$var wire 1 m \encodedOut~9_combout\ $end
$var wire 1 n \encodedOut~10_combout\ $end
$var wire 1 o \encodedOut~12_combout\ $end
$var wire 1 p \encodedOut~11_combout\ $end
$var wire 1 q \encodedOut~13_combout\ $end
$var wire 1 r \encodedOut~14_combout\ $end
$var wire 1 s \encodedOut~15_combout\ $end
$var wire 1 t \encodedOut~16_combout\ $end
$var wire 1 u \encodedOut~17_combout\ $end
$var wire 1 v \encodedOut~18_combout\ $end
$var wire 1 w \encodedOut~19_combout\ $end
$var wire 1 x \encodedOut~20_combout\ $end
$var wire 1 y \decodedIn[15]~input_o\ $end
$var wire 1 z \validOut~0_combout\ $end
$var wire 1 { \validOut~1_combout\ $end
$upscope $end
$upscope $end
$enddefinitions $end
#0
$dumpvars
05
06
17
x8
19
1:
1;
1<
1=
1>
0S
0T
0U
0V
0W
0X
xY
xZ
x[
x\
x]
x^
x_
x`
xa
xb
xc
xd
xe
xf
xg
xh
xi
xj
xk
xl
xm
xn
xo
xp
xq
xr
xs
xt
xu
xv
xw
xx
xy
xz
x{
1!
1"
1#
1$
1%
1&
1'
1(
1)
1*
1+
1,
1-
1.
1/
10
01
02
03
04
1?
1@
1A
1B
1C
1D
1E
1F
1G
1H
1I
1J
1K
1L
1M
1N
0O
0P
0Q
0R
$end
#640
1f
#650
1i
#660
1`
1a
1]
1c
1Y
#670
1y
1Z
1\
1g
#690
1^
1[
1l
#700
1e
#710
1h
#3253
xT
xR
x4
#3588
0m
#3589
0r
#3789
xV
xP
x2
#3849
0u
#3875
1d
#3897
1z
#3900
0n
#3909
xU
xQ
x3
#3915
0j
#3919
0b
#3923
0v
#3975
xX
xS
x5
#4003
xW
xO
x1
#4039
0x
#4041
0q
0_
#4061
1k
#4062
1s
#4154
0t
#4226
1p
#4240
0o
#4447
1{
#4920
0w
#7118
0T
0R
04
#8002
0W
0O
01
#8019
0U
0Q
03
#8422
1X
1S
15
#8640
0V
0P
02
#10000
0!
0"
0#
0$
0%
0&
0'
0(
0)
0*
0+
0,
0-
0.
0/
00
0N
0M
0L
0K
0J
0I
0H
0G
0F
0E
0D
0C
0B
0A
0@
0?
#10746
0f
#10756
0i
#10766
0`
0a
0]
0c
0Y
#10776
0y
0Z
0\
0g
#10796
0^
0[
0l
#10806
0e
#10816
0h
#14203
0d
#14244
1n
#14282
1m
#14411
0k
#14451
0z
#14534
1t
#14556
1r
#14570
1_
#14585
1u
#14591
1j
#14612
0s
#14629
1b
#14693
0j
#14699
1o
#14856
0b
#14861
1v
#14952
1k
#14981
0t
#15061
0k
#15121
1d
#15313
1q
#15372
1s
#15407
0s
#15424
1x
#15449
0n
#15702
1w
#15734
1t
#15793
0{
#15993
1n
#16099
0n
#16224
1n
#17497
1T
1R
14
#18443
1U
1Q
13
#18667
0T
0R
04
#18846
0U
0Q
03
#19246
1T
1R
14
#19317
0T
0R
04
#19427
1W
1O
11
#19477
1T
1R
14
#19491
1V
1P
12
#19643
1U
1Q
13
#19729
0X
0S
05
#20000
1"
1#
1$
1%
1&
1'
1(
1)
1*
1+
1,
1-
1.
1/
10
1N
1M
1L
1K
1J
1I
1H
1G
1F
1E
1D
1C
1B
1A
1@
#20640
1f
#20650
1i
#20660
1`
1a
1]
1c
1Y
#20670
1Z
1\
1g
#20690
1^
1[
1l
#20700
1e
#20710
1h
#23588
0m
#23589
0r
#23593
0_
#23849
0u
#23881
0p
#23900
0n
#23922
1z
#23923
0v
#24039
0x
#24041
0q
#24061
1k
#24062
1s
#24154
0t
#24226
1p
#24240
0o
#24447
1{
#24458
0w
#24463
1w
#24920
0w
#27118
0T
0R
04
#28002
0W
0O
01
#28019
0U
0Q
03
#28178
0V
0P
02
#28252
1V
1P
12
#28422
1X
1S
15
#28640
0V
0P
02
#30000
0"
0#
0$
0%
0&
0'
0(
0)
0*
0+
0,
0-
0.
0/
00
0N
0M
0L
0K
0J
0I
0H
0G
0F
0E
0D
0C
0B
0A
0@
#30746
0f
#30756
0i
#30766
0`
0a
0]
0c
0Y
#30776
0Z
0\
0g
#30796
0^
0[
0l
#30806
0e
#30816
0h
#34203
0d
#34244
1n
#34282
1m
#34411
0k
#34451
0z
#34534
1t
#34556
1r
#34570
1_
#34585
1u
#34591
1j
#34612
0s
#34629
1b
#34693
0j
#34699
1o
#34856
0b
#34861
1v
#34952
1k
#34981
0t
#35061
0k
#35121
1d
#35313
1q
#35372
1s
#35407
0s
#35424
1x
#35449
0n
#35702
1w
#35734
1t
#35793
0{
#35993
1n
#36099
0n
#36224
1n
#37497
1T
1R
14
#38443
1U
1Q
13
#38667
0T
0R
04
#38846
0U
0Q
03
#39246
1T
1R
14
#39317
0T
0R
04
#39427
1W
1O
11
#39477
1T
1R
14
#39491
1V
1P
12
#39643
1U
1Q
13
#39729
0X
0S
05
#40000
1#
1$
1%
1&
1'
1(
1)
1*
1+
1,
1-
1.
1/
10
1N
1M
1L
1K
1J
1I
1H
1G
1F
1E
1D
1C
1B
1A
#40640
1f
#40650
1i
#40660
1`
1a
1]
1c
1Y
#40670
1Z
1\
1g
#40690
1[
1l
#40700
1e
#40710
1h
#43588
0m
#43589
0r
#43849
0u
#43881
0p
#43900
0n
#43923
0v
#44039
0x
#44041
0q
0_
#44061
1k
#44062
1s
#44097
1z
#44154
0t
#44226
1p
#44240
0o
#44447
1{
#44458
0w
#44463
1w
#44920
0w
#47118
0T
0R
04
#48002
0W
0O
01
#48019
0U
0Q
03
#48178
0V
0P
02
#48252
1V
1P
12
#48422
1X
1S
15
#48640
0V
0P
02
#50000
0#
0$
0%
0&
0'
0(
0)
0*
0+
0,
0-
0.
0/
00
0N
0M
0L
0K
0J
0I
0H
0G
0F
0E
0D
0C
0B
0A
#50746
0f
#50756
0i
#50766
0`
0a
0]
0c
0Y
#50776
0Z
0\
0g
#50796
0[
0l
#50806
0e
#50816
0h
#54203
0d
#54244
1n
#54282
1m
#54411
0k
#54451
0z
#54534
1t
#54556
1r
#54570
1_
#54585
1u
#54591
1j
#54612
0s
#54629
1b
#54693
0j
#54699
1o
#54856
0b
#54861
1v
#54952
1k
#54981
0t
#55061
0k
#55121
1d
#55313
1q
#55372
1s
#55407
0s
#55424
1x
#55449
0n
#55702
1w
#55734
1t
#55793
0{
#55993
1n
#56099
0n
#56224
1n
#57497
1T
1R
14
#58443
1U
1Q
13
#58667
0T
0R
04
#58846
0U
0Q
03
#59246
1T
1R
14
#59317
0T
0R
04
#59427
1W
1O
11
#59477
1T
1R
14
#59491
1V
1P
12
#59643
1U
1Q
13
#59729
0X
0S
05
#60000
1#
1$
1%
1&
1'
1(
1)
1*
1+
1,
1-
1.
1/
10
1N
1M
1L
1K
1J
1I
1H
1G
1F
1E
1D
1C
1B
1A
#60640
1f
#60650
1i
#60660
1`
1a
1]
1c
1Y
#60670
1Z
1\
1g
#60690
1[
1l
#60700
1e
#60710
1h
#63588
0m
#63589
0r
#63849
0u
#63881
0p
#63900
0n
#63923
0v
#64039
0x
#64041
0q
0_
#64061
1k
#64062
1s
#64097
1z
#64154
0t
#64226
1p
#64240
0o
#64447
1{
#64458
0w
#64463
1w
#64920
0w
#67118
0T
0R
04
#68002
0W
0O
01
#68019
0U
0Q
03
#68178
0V
0P
02
#68252
1V
1P
12
#68422
1X
1S
15
#68640
0V
0P
02
#70000
0#
0$
0%
0&
0'
0(
0)
0*
0+
0,
0-
0.
0/
00
0N
0M
0L
0K
0J
0I
0H
0G
0F
0E
0D
0C
0B
0A
#70746
0f
#70756
0i
#70766
0`
0a
0]
0c
0Y
#70776
0Z
0\
0g
#70796
0[
0l
#70806
0e
#70816
0h
#74203
0d
#74244
1n
#74282
1m
#74411
0k
#74451
0z
#74534
1t
#74556
1r
#74570
1_
#74585
1u
#74591
1j
#74612
0s
#74629
1b
#74693
0j
#74699
1o
#74856
0b
#74861
1v
#74952
1k
#74981
0t
#75061
0k
#75121
1d
#75313
1q
#75372
1s
#75407
0s
#75424
1x
#75449
0n
#75702
1w
#75734
1t
#75793
0{
#75993
1n
#76099
0n
#76224
1n
#77497
1T
1R
14
#78443
1U
1Q
13
#78667
0T
0R
04
#78846
0U
0Q
03
#79246
1T
1R
14
#79317
0T
0R
04
#79427
1W
1O
11
#79477
1T
1R
14
#79491
1V
1P
12
#79643
1U
1Q
13
#79729
0X
0S
05
#80000
1$
1%
1&
1'
1(
1)
1*
1+
1,
1-
1.
1/
10
1N
1M
1L
1K
1J
1I
1H
1G
1F
1E
1D
1C
1B
#80640
1f
#80650
1i
#80660
1`
1a
1]
1c
1Y
#80670
1Z
1\
1g
#80690
1l
#80700
1e
#80710
1h
#83588
0m
#83589
0r
#83849
0u
#83881
0p
#83900
0n
#83923
0v
#84039
0x
#84041
0q
0_
#84061
1k
#84062
1s
#84154
0t
#84193
1z
#84226
1p
#84240
0o
#84447
1{
#84458
0w
#84463
1w
#84920
0w
#87118
0T
0R
04
#88002
0W
0O
01
#88019
0U
0Q
03
#88178
0V
0P
02
#88252
1V
1P
12
#88422
1X
1S
15
#88640
0V
0P
02
#90000
0$
0%
0&
0'
0(
0)
0*
0+
0,
0-
0.
0/
00
0N
0M
0L
0K
0J
0I
0H
0G
0F
0E
0D
0C
0B
#90746
0f
#90756
0i
#90766
0`
0a
0]
0c
0Y
#90776
0Z
0\
0g
#90796
0l
#90806
0e
#90816
0h
#94203
0d
#94244
1n
#94282
1m
#94411
0k
#94534
1t
#94556
1r
#94560
0z
#94585
1u
#94591
1j
#94612
0s
#94629
1b
#94634
1_
#94693
0j
#94699
1o
#94856
0b
#94861
1v
#94952
1k
#94981
0t
#95061
0k
#95121
1d
#95313
1q
#95372
1s
#95407
0s
#95424
1x
#95449
0n
#95702
1w
#95734
1t
#95793
0{
#95993
1n
#96099
0n
#96224
1n
#97497
1T
1R
14
#98443
1U
1Q
13
#98667
0T
0R
04
#98846
0U
0Q
03
#99246
1T
1R
14
#99317
0T
0R
04
#99427
1W
1O
11
#99477
1T
1R
14
#99491
1V
1P
12
#99643
1U
1Q
13
#99729
0X
0S
05
#100000
1%
1&
1'
1(
1)
1*
1+
1,
1-
1.
1/
10
1N
1M
1L
1K
1J
1I
1H
1G
1F
1E
1D
1C
#100640
1f
#100650
1i
#100660
1`
1a
1]
1c
1Y
#100670
1\
1g
#100690
1l
#100700
1e
#100710
1h
#103588
0m
#103589
0r
#103849
0u
#103900
0n
#103923
0v
#104039
0x
#104041
0q
0_
#104061
1k
#104062
1s
#104154
0t
#104240
0o
#104447
1{
#104458
0w
#104463
1w
#104920
0w
#107118
0T
0R
04
#108002
0W
0O
01
#108019
0U
0Q
03
#108178
0V
0P
02
#108252
1V
1P
12
#108422
1X
1S
15
#108640
0V
0P
02
#110000
0%
0&
0'
0(
0)
0*
0+
0,
0-
0.
0/
00
0N
0M
0L
0K
0J
0I
0H
0G
0F
0E
0D
0C
#110746
0f
#110756
0i
#110766
0`
0a
0]
0c
0Y
#110776
0\
0g
#110796
0l
#110806
0e
#110816
0h
#114203
0d
#114244
1n
#114282
1m
#114411
0k
#114534
1t
#114556
1r
#114585
1u
#114591
1j
#114612
0s
#114629
1b
#114634
1_
#114693
0j
#114699
1o
#114856
0b
#114861
1v
#114952
1k
#114981
0t
#115061
0k
#115121
1d
#115313
1q
#115372
1s
#115407
0s
#115424
1x
#115449
0n
#115702
1w
#115734
1t
#115793
0{
#115993
1n
#116099
0n
#116224
1n
#117497
1T
1R
14
#118443
1U
1Q
13
#118667
0T
0R
04
#118846
0U
0Q
03
#119246
1T
1R
14
#119317
0T
0R
04
#119427
1W
1O
11
#119477
1T
1R
14
#119491
1V
1P
12
#119643
1U
1Q
13
#119729
0X
0S
05
#120000
1&
1'
1(
1)
1*
1+
1,
1-
1.
1/
10
1N
1M
1L
1K
1J
1I
1H
1G
1F
1E
1D
#120640
1f
#120650
1i
#120660
1a
1]
1c
1Y
#120670
1\
1g
#120690
1l
#120700
1e
#120710
1h
#123588
0m
#123589
0r
#123849
0u
#123900
0n
#123923
0v
#124039
0x
#124041
0q
0_
#124061
1k
#124062
1s
#124154
0t
#124240
0o
#124447
1{
#124458
0w
#124463
1w
#124920
0w
#127118
0T
0R
04
#128002
0W
0O
01
#128019
0U
0Q
03
#128178
0V
0P
02
#128252
1V
1P
12
#128422
1X
1S
15
#128640
0V
0P
02
#130000
0&
0'
0(
0)
0*
0+
0,
0-
0.
0/
00
0N
0M
0L
0K
0J
0I
0H
0G
0F
0E
0D
#130746
0f
#130756
0i
#130766
0a
0]
0c
0Y
#130776
0\
0g
#130796
0l
#130806
0e
#130816
0h
#134203
0d
#134244
1n
#134282
1m
#134411
0k
#134534
1t
#134556
1r
#134585
1u
#134591
1j
#134599
1v
#134612
0s
#134634
1_
#134693
0j
#134699
1o
#134952
1k
#134981
0t
#135061
0k
#135291
1d
#135313
1q
#135372
1s
#135407
0s
#135424
1x
#135449
0n
#135702
1w
#135734
1t
#135793
0{
#135993
1n
#136099
0n
#136394
1n
#137497
1T
1R
14
#138443
1U
1Q
13
#138667
0T
0R
04
#138846
0U
0Q
03
#139246
1T
1R
14
#139317
0T
0R
04
#139427
1W
1O
11
#139491
1V
1P
12
#139643
1U
1Q
13
#139647
1T
1R
14
#139729
0X
0S
05
#140000
1'
1(
1)
1*
1+
1,
1-
1.
1/
10
1N
1M
1L
1K
1J
1I
1H
1G
1F
1E
#140640
1f
#140650
1i
#140660
1a
1]
1c
1Y
#140670
1g
#140690
1l
#140700
1e
#140710
1h
#143588
0m
#143589
0r
#143849
0u
#143900
0n
#143923
0v
#144039
0x
#144041
0q
0_
#144061
1k
#144062
1s
#144154
0t
#144240
0o
#144447
1{
#144458
0w
#144463
1w
#144920
0w
#147118
0T
0R
04
#148002
0W
0O
01
#148019
0U
0Q
03
#148178
0V
0P
02
#148252
1V
1P
12
#148422
1X
1S
15
#148640
0V
0P
02
#150000
0'
0(
0)
0*
0+
0,
0-
0.
0/
00
0N
0M
0L
0K
0J
0I
0H
0G
0F
0E
#150746
0f
#150756
0i
#150766
0a
0]
0c
0Y
#150776
0g
#150796
0l
#150806
0e
#150816
0h
#154203
0d
#154244
1n
#154282
1m
#154298
1v
#154411
0k
#154412
1_
#154534
1t
#154556
1r
#154585
1u
#154591
1j
#154612
0s
#154693
0j
#154699
1o
#154952
1k
#154981
0t
#155061
0k
#155069
1d
#155313
1q
#155372
1s
#155407
0s
#155424
1x
#155449
0n
#155702
1w
#155734
1t
#155793
0{
#155993
1n
#157497
1T
1R
14
#158443
1U
1Q
13
#158667
0T
0R
04
#158846
0U
0Q
03
#159246
1T
1R
14
#159427
1W
1O
11
#159491
1V
1P
12
#159643
1U
1Q
13
#159729
0X
0S
05
#160000
1(
1)
1*
1+
1,
1-
1.
1/
10
1N
1M
1L
1K
1J
1I
1H
1G
1F
#160640
1f
#160650
1i
#160660
1]
1c
1Y
#160670
1g
#160690
1l
#160700
1e
#160710
1h
#163588
0m
#163589
0r
#163849
0u
#163900
0n
#164039
0x
#164041
0v
0q
0_
#164061
1k
#164062
1s
#164154
0t
#164240
0o
#164447
1{
#164920
0w
#167118
0T
0R
04
#168002
0W
0O
01
#168019
0U
0Q
03
#168422
1X
1S
15
#168640
0V
0P
02
#170000
0(
0)
0*
0+
0,
0-
0.
0/
00
0N
0M
0L
0K
0J
0I
0H
0G
0F
#170746
0f
#170756
0i
#170766
0]
0c
0Y
#170776
0g
#170796
0l
#170806
0e
#170816
0h
#174203
0d
#174244
1n
#174282
1m
#174411
1v
0k
#174412
1_
#174534
1t
#174556
1r
#174585
1u
#174591
1j
#174612
0s
#174693
0j
#174699
1o
#174952
1k
#174981
0t
#175061
0k
#175069
1d
#175313
1q
#175372
1s
#175407
0s
#175424
1x
#175449
0n
#175702
1w
#175734
1t
#175793
0{
#175993
1n
#177497
1T
1R
14
#178443
1U
1Q
13
#178667
0T
0R
04
#178846
0U
0Q
03
#179246
1T
1R
14
#179427
1W
1O
11
#179491
1V
1P
12
#179643
1U
1Q
13
#179729
0X
0S
05
#180000
1)
1*
1+
1,
1-
1.
1/
10
1N
1M
1L
1K
1J
1I
1H
1G
#180640
1f
#180650
1i
#180660
1c
1Y
#180670
1g
#180690
1l
#180700
1e
#180710
1h
#183588
0m
#183589
0r
#183849
0u
#183900
0n
#184039
0x
#184061
1k
#184062
1s
#184154
0t
#184240
0o
#184447
1{
#184900
0q
#184920
0w
#187118
0T
0R
04
#188002
0W
0O
01
#188019
0U
0Q
03
#188422
1X
1S
15
#188640
0V
0P
02
#190000
0)
0*
0+
0,
0-
0.
0/
00
0N
0M
0L
0K
0J
0I
0H
0G
#190746
0f
#190756
0i
#190766
0c
0Y
#190776
0g
#190796
0l
#190806
0e
#190816
0h
#194244
1n
#194282
1m
#194411
0k
#194534
1t
#194556
1r
#194585
1u
#194591
1j
#194612
0s
#194693
0j
#194699
1o
#194952
1k
#194981
0t
#195061
0k
#195313
1q
#195372
1s
#195407
0s
#195424
1x
#195702
1w
#195734
1t
#195793
0{
#197497
1T
1R
14
#198443
1U
1Q
13
#198846
0U
0Q
03
#199427
1W
1O
11
#199491
1V
1P
12
#199643
1U
1Q
13
#199729
0X
0S
05
#200000
1*
1+
1,
1-
1.
1/
10
1N
1M
1L
1K
1J
1I
1H
#200640
1f
#200650
1i
#200660
1Y
#200670
1g
#200690
1l
#200700
1e
#200710
1h
#203588
0m
#203589
0r
#203849
0u
#203900
0n
#204039
0x
#204061
1k
#204062
1s
#204154
0t
#204240
0o
#204447
1{
#204900
0q
#204920
0w
#207118
0T
0R
04
#208002
0W
0O
01
#208019
0U
0Q
03
#208422
1X
1S
15
#208640
0V
0P
02
#210000
0*
0+
0,
0-
0.
0/
00
0N
0M
0L
0K
0J
0I
0H
#210746
0f
#210756
0i
#210766
0Y
#210776
0g
#210796
0l
#210806
0e
#210816
0h
#213965
1r
#214244
1n
#214282
1m
#214411
0k
#214534
1t
#214585
1u
#214591
1j
#214612
0s
#214693
0j
#214699
1o
#214952
1k
#214981
0t
#215061
0k
#215208
1x
#215313
1q
#215577
0{
#215702
1w
#215805
1t
#217497
1T
1R
14
#218443
1U
1Q
13
#218846
0U
0Q
03
#219211
1W
1O
11
#219491
1V
1P
12
#219513
0X
0S
05
#219714
1U
1Q
13
#220000
1+
1,
1-
1.
1/
10
1N
1M
1L
1K
1J
1I
#220640
1f
#220650
1i
#220660
1Y
#220670
1g
#220700
1e
#220710
1h
#223849
0u
#223900
0n
#223901
0m
#224039
0x
#224061
1k
#224062
1s
#224154
0t
#224240
0o
#224447
1{
#224900
0q
#224920
0w
#227118
0T
0R
04
#228002
0W
0O
01
#228019
0U
0Q
03
#228422
1X
1S
15
#228640
0V
0P
02
#230000
0+
0,
0-
0.
0/
00
0N
0M
0L
0K
0J
0I
#230746
0f
#230756
0i
#230766
0Y
#230776
0g
#230806
0e
#230816
0h
#234244
1n
#234282
1m
#234411
0k
#234534
1t
#234585
1u
#234591
1j
#234612
0s
#234693
0j
#234699
1o
#234952
1k
#234981
0t
#235061
0k
#235208
1x
#235313
1q
#235577
0{
#235702
1w
#235805
1t
#237497
1T
1R
14
#238443
1U
1Q
13
#238846
0U
0Q
03
#239211
1W
1O
11
#239491
1V
1P
12
#239513
0X
0S
05
#239714
1U
1Q
13
#240000
1,
1-
1.
1/
10
1N
1M
1L
1K
1J
#240640
1f
#240660
1Y
#240670
1g
#240700
1e
#240710
1h
#243849
0u
#243900
0n
#243901
0m
#244039
0x
#244061
1k
#244062
1s
#244154
0t
#244240
0o
#244447
1{
#244900
0q
#244920
0w
#247118
0T
0R
04
#248002
0W
0O
01
#248019
0U
0Q
03
#248422
1X
1S
15
#248640
0V
0P
02
#250000
0,
0-
0.
0/
00
0N
0M
0L
0K
0J
#250746
0f
#250766
0Y
#250776
0g
#250806
0e
#250816
0h
#254244
1n
#254282
1m
#254411
0k
#254534
1t
#254585
1u
#254608
1o
#254612
0s
#254981
0t
#255208
1x
#255222
1q
#255577
0{
#255702
1w
#255714
1t
#257497
1T
1R
14
#258443
1U
1Q
13
#258846
0U
0Q
03
#259211
1W
1O
11
#259491
1V
1P
12
#259513
0X
0S
05
#259623
1U
1Q
13
#260000
1-
1.
1/
10
1N
1M
1L
1K
#260640
1f
#260660
1Y
#260670
1g
#260700
1e
#263849
0u
#263900
0n
#263901
0m
#264061
1k
#264062
1s
#264154
0t
#264509
0x
#264917
1{
#264957
0w
#267118
0T
0R
04
#268019
0U
0Q
03
#268472
0W
0O
01
#268677
0V
0P
02
#268892
1X
1S
15
#270000
0-
0.
0/
00
0N
0M
0L
0K
#270746
0f
#270766
0Y
#270776
0g
#270806
0e
#274244
1n
#274258
1m
#274411
0k
#274534
1t
#274585
1u
#274612
0s
#275208
1x
#275577
0{
#275702
1w
#277497
1T
1R
14
#278443
1U
1Q
13
#279211
1W
1O
11
#279491
1V
1P
12
#279513
0X
0S
05
#280000
1.
1/
10
1N
1M
1L
#280640
1f
#280660
1Y
#280700
1e
#283849
0u
#283900
0n
#283901
0m
#284154
0t
#284161
1k
#284264
1s
#284509
0x
#284917
1{
#284957
0w
#287118
0T
0R
04
#288019
0U
0Q
03
#288472
0W
0O
01
#288677
0V
0P
02
#288892
1X
1S
15
#290000
0.
0/
00
0N
0M
0L
#290746
0f
#290766
0Y
#290806
0e
#294244
1n
#294258
1m
#294534
1t
#294539
0k
#294585
1u
#294612
0s
#295208
1x
#295577
0{
#295702
1w
#297497
1T
1R
14
#298443
1U
1Q
13
#299211
1W
1O
11
#299491
1V
1P
12
#299513
0X
0S
05
#300000
1/
10
1N
1M
#300640
1f
#300660
1Y
#303849
0u
#303900
0n
#304154
0t
#304161
1k
#304509
0x
#304917
1{
#304957
0w
#307118
0T
0R
04
#308019
0U
0Q
03
#308472
0W
0O
01
#308677
0V
0P
02
#308892
1X
1S
15
#310000
0/
00
0N
0M
#310746
0f
#310766
0Y
#314244
1n
#314534
1t
#314539
0k
#314550
1u
#315173
1x
#315542
0{
#315667
1w
#317497
1T
1R
14
#318443
1U
1Q
13
#319176
1W
1O
11
#319456
1V
1P
12
#319478
0X
0S
05
#320000
10
1N
#320660
1Y
#323900
0n
#324176
0t
#324209
0u
#324869
0x
#325277
1{
#325317
0w
#327118
0T
0R
04
#328041
0U
0Q
03
#328832
0W
0O
01
#329037
0V
0P
02
#329252
1X
1S
15
#330000
00
0N
#330766
0Y
#334244
1n
#334534
1t
#334550
1u
#335173
1x
#335542
0{
#335667
1w
#337497
1T
1R
14
#338443
1U
1Q
13
#339176
1W
1O
11
#339456
1V
1P
12
#339478
0X
0S
05
