1ano/2semestre/LSD/Praticas/Aula06/Parte2/simulation/qsim/SeqShiftUnit_Demo.msim.vcd
$comment
	File created using the following command:
		vcd file SeqShiftUnit_Demo.msim.vcd -direction
$end
$date
	Fri Mar 22 11:43:53 2024
$end
$version
	Questa Intel Starter FPGA Edition Version 2021.2
$end
$timescale
	1ps
$end

$scope module seqshiftunit_vhd_vec_tst $end
$var wire 1 ! clk $end
$var wire 1 " dataIn [7] $end
$var wire 1 # dataIn [6] $end
$var wire 1 $ dataIn [5] $end
$var wire 1 % dataIn [4] $end
$var wire 1 & dataIn [3] $end
$var wire 1 ' dataIn [2] $end
$var wire 1 ( dataIn [1] $end
$var wire 1 ) dataIn [0] $end
$var wire 1 * dataOut [7] $end
$var wire 1 + dataOut [6] $end
$var wire 1 , dataOut [5] $end
$var wire 1 - dataOut [4] $end
$var wire 1 . dataOut [3] $end
$var wire 1 / dataOut [2] $end
$var wire 1 0 dataOut [1] $end
$var wire 1 1 dataOut [0] $end
$var wire 1 2 dirLeft $end
$var wire 1 3 loadEn $end
$var wire 1 4 rotate $end
$var wire 1 5 shArith $end
$var wire 1 6 siLeft $end
$var wire 1 7 siRight $end

$scope module i1 $end
$var wire 1 8 gnd $end
$var wire 1 9 vcc $end
$var wire 1 : unknown $end
$var wire 1 ; devoe $end
$var wire 1 < devclrn $end
$var wire 1 = devpor $end
$var wire 1 > ww_devoe $end
$var wire 1 ? ww_devclrn $end
$var wire 1 @ ww_devpor $end
$var wire 1 A ww_clk $end
$var wire 1 B ww_dataIn [7] $end
$var wire 1 C ww_dataIn [6] $end
$var wire 1 D ww_dataIn [5] $end
$var wire 1 E ww_dataIn [4] $end
$var wire 1 F ww_dataIn [3] $end
$var wire 1 G ww_dataIn [2] $end
$var wire 1 H ww_dataIn [1] $end
$var wire 1 I ww_dataIn [0] $end
$var wire 1 J ww_siLeft $end
$var wire 1 K ww_siRight $end
$var wire 1 L ww_loadEn $end
$var wire 1 M ww_rotate $end
$var wire 1 N ww_dirLeft $end
$var wire 1 O ww_shArith $end
$var wire 1 P ww_dataOut [7] $end
$var wire 1 Q ww_dataOut [6] $end
$var wire 1 R ww_dataOut [5] $end
$var wire 1 S ww_dataOut [4] $end
$var wire 1 T ww_dataOut [3] $end
$var wire 1 U ww_dataOut [2] $end
$var wire 1 V ww_dataOut [1] $end
$var wire 1 W ww_dataOut [0] $end
$var wire 1 X \clk~inputclkctrl_INCLK_bus\ [3] $end
$var wire 1 Y \clk~inputclkctrl_INCLK_bus\ [2] $end
$var wire 1 Z \clk~inputclkctrl_INCLK_bus\ [1] $end
$var wire 1 [ \clk~inputclkctrl_INCLK_bus\ [0] $end
$var wire 1 \ \dataOut[0]~output_o\ $end
$var wire 1 ] \dataOut[1]~output_o\ $end
$var wire 1 ^ \dataOut[2]~output_o\ $end
$var wire 1 _ \dataOut[3]~output_o\ $end
$var wire 1 ` \dataOut[4]~output_o\ $end
$var wire 1 a \dataOut[5]~output_o\ $end
$var wire 1 b \dataOut[6]~output_o\ $end
$var wire 1 c \dataOut[7]~output_o\ $end
$var wire 1 d \clk~input_o\ $end
$var wire 1 e \clk~inputclkctrl_outclk\ $end
$var wire 1 f \dirLeft~input_o\ $end
$var wire 1 g \rotate~input_o\ $end
$var wire 1 h \shArith~input_o\ $end
$var wire 1 i \siRight~input_o\ $end
$var wire 1 j \s_shiftReg[7]~9_combout\ $end
$var wire 1 k \s_shiftReg[7]~10_combout\ $end
$var wire 1 l \s_shiftReg[7]~7_combout\ $end
$var wire 1 m \s_shiftReg[7]~feeder_combout\ $end
$var wire 1 n \dataIn[7]~input_o\ $end
$var wire 1 o \loadEn~input_o\ $end
$var wire 1 p \s_shiftReg[6]~6_combout\ $end
$var wire 1 q \dataIn[6]~input_o\ $end
$var wire 1 r \s_shiftReg[5]~5_combout\ $end
$var wire 1 s \dataIn[5]~input_o\ $end
$var wire 1 t \s_shiftReg[4]~4_combout\ $end
$var wire 1 u \dataIn[4]~input_o\ $end
$var wire 1 v \s_shiftReg[3]~3_combout\ $end
$var wire 1 w \dataIn[3]~input_o\ $end
$var wire 1 x \s_shiftReg[2]~2_combout\ $end
$var wire 1 y \dataIn[2]~input_o\ $end
$var wire 1 z \s_shiftReg[1]~1_combout\ $end
$var wire 1 { \dataIn[1]~input_o\ $end
$var wire 1 | \siLeft~input_o\ $end
$var wire 1 } \s_shiftReg~8_combout\ $end
$var wire 1 ~ \s_shiftReg[0]~0_combout\ $end
$var wire 1 !! \dataIn[0]~input_o\ $end
$var wire 1 "! s_shiftReg [7] $end
$var wire 1 #! s_shiftReg [6] $end
$var wire 1 $! s_shiftReg [5] $end
$var wire 1 %! s_shiftReg [4] $end
$var wire 1 &! s_shiftReg [3] $end
$var wire 1 '! s_shiftReg [2] $end
$var wire 1 (! s_shiftReg [1] $end
$var wire 1 )! s_shiftReg [0] $end
$var wire 1 *! \ALT_INV_clk~inputclkctrl_outclk\ $end
$upscope $end
$upscope $end
$enddefinitions $end
#0
$dumpvars
1!
02
13
14
05
06
07
08
19
x:
1;
1<
1=
1>
1?
1@
1A
0J
0K
1L
1M
0N
0O
0\
0]
0^
0_
0`
0a
0b
0c
1d
1e
0f
1g
0h
0i
1j
0k
0l
0m
0n
1o
0p
0q
0r
1s
0t
1u
0v
1w
0x
1y
0z
1{
0|
0}
0~
1!!
0*!
0"
0#
1$
1%
1&
1'
1(
1)
0B
0C
1D
1E
1F
1G
1H
1I
0"!
0#!
0$!
0%!
0&!
0'!
0(!
0)!
1X
1Y
1Z
1[
0*
0+
0,
0-
0.
0/
00
01
0P
0Q
0R
0S
0T
0U
0V
0W
$end
#5000
0!
0A
0d
0[
0e
1*!
1$!
1%!
1&!
1'!
1(!
1)!
1k
1~
1z
1x
1v
1t
1l
1\
1]
1^
1_
1`
1a
1m
1W
1V
1U
1T
1S
1R
11
10
1/
1.
1-
1,
#10000
1!
1A
1d
1[
1e
0*!
#15000
0!
0A
0d
0[
0e
1*!
#20000
1!
0$
0%
0&
0'
0(
0)
04
03
1A
0I
0H
0G
0F
0E
0D
0M
0L
0o
0g
0s
0u
0w
0y
0{
0!!
1d
1[
0j
0l
1e
0m
0*!
#25000
0!
0A
0d
0[
0e
1*!
0$!
0t
0a
0R
0,
#30000
1!
1A
1d
1[
1e
0*!
#35000
0!
0A
0d
0[
0e
1*!
0%!
0v
0`
0S
0-
#40000
1!
1A
1d
1[
1e
0*!
#45000
0!
0A
0d
0[
0e
1*!
0&!
0x
0_
0T
0.
#50000
1!
1A
1d
1[
1e
0*!
#60000
0!
0A
0d
0[
0e
1*!
0'!
0z
0^
0U
0/
#65000
1!
1A
1d
1[
1e
0*!
#70000
0!
0A
0d
0[
0e
1*!
0(!
0~
0]
0V
00
#85000
1!
1A
1d
1[
1e
0*!
#90000
13
1L
1o
#95000
0!
0A
0d
0[
0e
1*!
0)!
0\
0W
01
#110000
1!
03
1A
0L
0o
1d
1[
1e
0*!
#115000
0!
0A
0d
0[
0e
1*!
#125000
1!
1A
1d
1[
1e
0*!
#135000
0!
0A
0d
0[
0e
1*!
#140000
1!
1A
1d
1[
1e
0*!
#145000
0!
0A
0d
0[
0e
1*!
#155000
1!
1A
1d
1[
1e
0*!
#160000
0!
0A
0d
0[
0e
1*!
#170000
1!
1A
1d
1[
1e
0*!
#190000
0!
0A
0d
0[
0e
1*!
#195000
1!
1A
1d
1[
1e
0*!
#205000
0!
0A
0d
0[
0e
1*!
#215000
1!
1A
1d
1[
1e
0*!
#235000
0!
0A
0d
0[
0e
1*!
#245000
1!
1A
1d
1[
1e
0*!
#255000
0!
0A
0d
0[
0e
1*!
#280000
1!
1A
1d
1[
1e
0*!
#285000
0!
0A
0d
0[
0e
1*!
#295000
1!
1A
1d
1[
1e
0*!
#305000
0!
0A
0d
0[
0e
1*!
#320000
1!
1A
1d
1[
1e
0*!
#325000
0!
0A
0d
0[
0e
1*!
#330000
1!
1A
1d
1[
1e
0*!
#355000
0!
0A
0d
0[
0e
1*!
#375000
1!
1A
1d
1[
1e
0*!
#390000
0!
0A
0d
0[
0e
1*!
#400000
1!
1A
1d
1[
1e
0*!
#425000
0!
0A
0d
0[
0e
1*!
#430000
1!
1A
1d
1[
1e
0*!
#440000
0!
0A
0d
0[
0e
1*!
#445000
1!
1A
1d
1[
1e
0*!
#455000
0!
0A
0d
0[
0e
1*!
#465000
1!
1A
1d
1[
1e
0*!
#470000
0!
0A
0d
0[
0e
1*!
#475000
1!
1A
1d
1[
1e
0*!
#485000
0!
0A
0d
0[
0e
1*!
#495000
1!
1A
1d
1[
1e
0*!
#510000
0!
0A
0d
0[
0e
1*!
#515000
1!
1A
1d
1[
1e
0*!
#520000
0!
0A
0d
0[
0e
1*!
#540000
1!
1A
1d
1[
1e
0*!
#560000
0!
0A
0d
0[
0e
1*!
#570000
1!
1A
1d
1[
1e
0*!
#575000
0!
0A
0d
0[
0e
1*!
#585000
1!
1A
1d
1[
1e
0*!
#590000
0!
0A
0d
0[
0e
1*!
#600000
1!
1A
1d
1[
1e
0*!
#630000
0!
0A
0d
0[
0e
1*!
#640000
1!
1A
1d
1[
1e
0*!
#655000
0!
0A
0d
0[
0e
1*!
#660000
1!
1A
1d
1[
1e
0*!
#675000
0!
0A
0d
0[
0e
1*!
#685000
1!
1A
1d
1[
1e
0*!
#690000
0!
0A
0d
0[
0e
1*!
#695000
1!
1A
1d
1[
1e
0*!
#710000
0!
0A
0d
0[
0e
1*!
#715000
1!
1A
1d
1[
1e
0*!
#720000
0!
0A
0d
0[
0e
1*!
#725000
1!
1A
1d
1[
1e
0*!
#730000
0!
0A
0d
0[
0e
1*!
#735000
1!
1A
1d
1[
1e
0*!
#750000
0!
0A
0d
0[
0e
1*!
#760000
1!
1A
1d
1[
1e
0*!
#765000
0!
0A
0d
0[
0e
1*!
#775000
1!
1A
1d
1[
1e
0*!
#785000
0!
0A
0d
0[
0e
1*!
#800000
1!
1A
1d
1[
1e
0*!
#810000
0!
0A
0d
0[
0e
1*!
#830000
1!
1A
1d
1[
1e
0*!
#840000
0!
0A
0d
0[
0e
1*!
#850000
1!
1A
1d
1[
1e
0*!
#855000
0!
0A
0d
0[
0e
1*!
#870000
1!
1A
1d
1[
1e
0*!
#875000
0!
0A
0d
0[
0e
1*!
#885000
1!
1A
1d
1[
1e
0*!
#920000
0!
0A
0d
0[
0e
1*!
#925000
1!
1A
1d
1[
1e
0*!
#930000
0!
0A
0d
0[
0e
1*!
#940000
1!
1A
1d
1[
1e
0*!
#950000
0!
0A
0d
0[
0e
1*!
#975000
1!
1A
1d
1[
1e
0*!
#980000
0!
0A
0d
0[
0e
1*!
