1ano/2semestre/LSD/Praticas/Aula08/Parte02/simulation/qsim/DrinksMachine.msim.vcd
$comment
	File created using the following command:
		vcd file DrinksMachine.msim.vcd -direction
$end
$date
	Fri May 17 10:31:23 2024
$end
$version
	Questa Intel Starter FPGA Edition Version 2021.2
$end
$timescale
	1ps
$end

$scope module drinksfsm_vhd_vec_tst $end
$var wire 1 ! C $end
$var wire 1 " clk $end
$var wire 1 # drinkOut $end
$var wire 1 $ reset $end
$var wire 1 % V $end

$scope module i1 $end
$var wire 1 & gnd $end
$var wire 1 ' vcc $end
$var wire 1 ( unknown $end
$var wire 1 ) devoe $end
$var wire 1 * devclrn $end
$var wire 1 + devpor $end
$var wire 1 , ww_devoe $end
$var wire 1 - ww_devclrn $end
$var wire 1 . ww_devpor $end
$var wire 1 / ww_clk $end
$var wire 1 0 ww_reset $end
$var wire 1 1 ww_V $end
$var wire 1 2 ww_C $end
$var wire 1 3 ww_drinkOut $end
$var wire 1 4 \clk~inputclkctrl_INCLK_bus\ [3] $end
$var wire 1 5 \clk~inputclkctrl_INCLK_bus\ [2] $end
$var wire 1 6 \clk~inputclkctrl_INCLK_bus\ [1] $end
$var wire 1 7 \clk~inputclkctrl_INCLK_bus\ [0] $end
$var wire 1 8 \drinkOut~output_o\ $end
$var wire 1 9 \clk~input_o\ $end
$var wire 1 : \clk~inputclkctrl_outclk\ $end
$var wire 1 ; \C~input_o\ $end
$var wire 1 < \reset~input_o\ $end
$var wire 1 = \V~input_o\ $end
$var wire 1 > \pState~9_combout\ $end
$var wire 1 ? \pState~13_combout\ $end
$var wire 1 @ \pState~11_combout\ $end
$var wire 1 A \nState~0_combout\ $end
$var wire 1 B \pState~19_combout\ $end
$var wire 1 C \pState.S0~q\ $end
$var wire 1 D \pState~18_combout\ $end
$var wire 1 E \pState.S1~q\ $end
$var wire 1 F \pState~15_combout\ $end
$var wire 1 G \pState.S2~q\ $end
$var wire 1 H \pState~16_combout\ $end
$var wire 1 I \pState~17_combout\ $end
$var wire 1 J \pState.S3~q\ $end
$var wire 1 K \pState~12_combout\ $end
$var wire 1 L \pState~14_combout\ $end
$var wire 1 M \pState.S4~q\ $end
$var wire 1 N \pState~8_combout\ $end
$var wire 1 O \pState~10_combout\ $end
$var wire 1 P \pState.S5~q\ $end
$upscope $end
$upscope $end
$enddefinitions $end
#0
$dumpvars
0!
0"
0#
0$
0%
0&
1'
x(
1)
1*
1+
1,
1-
1.
0/
00
01
02
03
08
09
0:
0;
0<
0=
0>
0?
0@
0A
0B
0C
0D
0E
0F
0G
0H
0I
0J
0K
0L
0M
0N
0O
0P
14
15
16
07
$end
#5000
1!
1"
12
1/
19
1;
17
1>
1?
1A
1B
1H
1:
1I
1C
0H
0I
#10000
0!
0"
02
0/
09
0;
07
0>
0?
0A
0:
#15000
1!
1"
12
1/
19
1;
17
1>
1?
1A
1:
#20000
0"
1%
0/
11
1=
09
07
0>
1@
0:
#25000
1"
0%
0!
1/
01
02
0;
0=
19
17
0@
0?
0A
1:
#30000
0"
1!
0/
12
1;
09
07
1>
1?
1A
0:
#35000
1"
0!
1%
1/
02
11
1=
0;
19
17
0>
1@
1:
#40000
0"
0%
0/
01
0=
09
07
0?
0@
0A
0:
#45000
1"
1%
1!
1/
11
12
1;
1=
19
17
1@
1?
1A
1:
#50000
0"
0/
09
07
0:
#55000
1"
0%
1/
01
0=
19
17
1>
0@
1:
#60000
0"
1%
0!
0/
11
02
0;
1=
09
07
1@
0>
0:
#65000
1"
1!
1/
12
1;
19
17
1:
#70000
0"
0!
0/
02
0;
09
07
0:
#75000
1"
1!
1/
12
1;
19
17
1:
#80000
0"
0!
0/
02
0;
09
07
0:
#85000
1"
1/
19
17
1:
#90000
0"
1!
0%
0/
12
01
0=
1;
09
07
1>
0@
0:
#95000
1"
0!
1/
02
0;
19
17
0>
0?
0A
1:
#100000
0"
0/
09
07
0:
#105000
1"
1/
19
17
1:
#110000
0"
0/
09
07
0:
#115000
1"
1!
1%
1/
12
11
1=
1;
19
17
1?
1@
1A
1:
#120000
0"
0!
0%
0/
02
01
0=
0;
09
07
0?
0@
0A
0:
#125000
1"
1%
1/
11
1=
19
17
1?
1@
1A
1:
#130000
0"
1!
0/
12
1;
09
07
0:
#135000
1"
0!
0%
1/
02
01
0=
0;
19
17
0?
0@
0A
1:
#140000
0"
0/
09
07
0:
#145000
1"
1!
1/
12
1;
19
17
1>
1?
1A
1:
#150000
0"
0/
09
07
0:
#155000
1"
1/
19
17
1:
#160000
0"
0!
1%
0/
02
11
1=
0;
09
07
0>
1@
0:
#165000
1"
1!
1/
12
1;
19
17
1:
#170000
0"
0/
09
07
0:
#175000
1"
1/
19
17
1:
#180000
0"
0/
09
07
0:
#185000
1"
0%
1/
01
0=
19
17
1>
0@
1:
#190000
0"
1%
0/
11
1=
09
07
0>
1@
0:
#195000
1"
0%
0!
1/
01
02
0;
0=
19
17
0@
0?
0A
1:
#200000
0"
1%
0/
11
1=
09
07
1?
1@
1A
0:
#205000
1"
0%
1!
1/
01
12
1;
0=
19
17
0@
1>
1:
#210000
0"
1%
0/
11
1=
09
07
0>
1@
0:
#215000
1"
0%
1/
01
0=
19
17
1>
0@
1:
#220000
0"
1%
0/
11
1=
09
07
0>
1@
0:
#225000
1"
0!
1/
02
0;
19
17
1:
#230000
0"
1!
0%
0/
12
01
0=
1;
09
07
1>
0@
0:
#235000
1"
1/
19
17
1:
#240000
0"
0!
1%
0/
02
11
1=
0;
09
07
0>
1@
0:
#245000
1"
0%
1/
01
0=
19
17
0?
0@
0A
1:
#250000
0"
1%
1!
0/
11
12
1;
1=
09
07
1@
1?
1A
0:
#255000
1"
0!
1/
02
0;
19
17
1:
#260000
0"
1!
0%
0/
12
01
0=
1;
09
07
1>
0@
0:
#265000
1"
0!
1%
1/
02
11
1=
0;
19
17
0>
1@
1:
#270000
0"
1!
0/
12
1;
09
07
0:
#275000
1"
0!
1/
02
0;
19
17
1:
#280000
0"
1!
0/
12
1;
09
07
0:
#285000
1"
0%
1/
01
0=
19
17
1>
0@
1:
#290000
0"
1%
0/
11
1=
09
07
0>
1@
0:
#295000
1"
0%
0!
1/
01
02
0;
0=
19
17
0@
0?
0A
1:
#300000
0"
1%
1!
0/
11
12
1;
1=
09
07
1@
1?
1A
0:
#305000
1"
0!
1/
02
0;
19
17
1:
#310000
0"
0/
09
07
0:
#315000
1"
0%
1/
01
0=
19
17
0?
0@
0A
1:
#320000
0"
1%
1!
0/
11
12
1;
1=
09
07
1@
1?
1A
0:
#325000
1"
0%
1/
01
0=
19
17
1>
0@
1:
#330000
0"
0!
0/
02
0;
09
07
0>
0?
0A
0:
#335000
1"
1/
19
17
1:
#340000
0"
1!
0/
12
1;
09
07
1>
1?
1A
0:
#345000
1"
0!
1/
02
0;
19
17
0>
0?
0A
1:
#350000
0"
1!
1%
0/
12
11
1=
1;
09
07
1?
1@
1A
0:
#355000
1"
1/
19
17
1:
#360000
0"
0!
0%
0/
02
01
0=
0;
09
07
0?
0@
0A
0:
#365000
1"
1!
1%
1/
12
11
1=
1;
19
17
1?
1@
1A
1:
#370000
0"
0!
0%
0/
02
01
0=
0;
09
07
0?
0@
0A
0:
#375000
1"
1!
1%
1/
12
11
1=
1;
19
17
1?
1@
1A
1:
#380000
0"
0!
0/
02
0;
09
07
0:
#385000
1"
1!
1/
12
1;
19
17
1:
#390000
0"
0!
0/
02
0;
09
07
0:
#395000
1"
0%
1/
01
0=
19
17
0?
0@
0A
1:
#400000
0"
1%
1!
0/
11
12
1;
1=
09
07
1@
1?
1A
0:
#405000
1"
0%
1/
01
0=
19
17
1>
0@
1:
#410000
0"
0/
09
07
0:
#415000
1"
0!
1/
02
0;
19
17
0>
0?
0A
1:
#420000
0"
0/
09
07
0:
#425000
1"
1/
19
17
1:
#430000
0"
1%
0/
11
1=
09
07
1?
1@
1A
0:
#435000
1"
1!
1/
12
1;
19
17
1:
#440000
0"
0%
0/
01
0=
09
07
1>
0@
0:
#445000
1"
1%
1/
11
1=
19
17
0>
1@
1:
#450000
0"
0%
0!
0/
01
02
0;
0=
09
07
0@
0?
0A
0:
#455000
1"
1!
1/
12
1;
19
17
1>
1?
1A
1:
#460000
0"
1%
0/
11
1=
09
07
0>
1@
0:
#465000
1"
1/
19
17
1:
#470000
0"
0!
0/
02
0;
09
07
0:
#475000
1"
1/
19
17
1:
#480000
0"
1!
0%
0/
12
01
0=
1;
09
07
1>
0@
0:
#485000
1"
0!
1/
02
0;
19
17
0>
0?
0A
1:
#490000
0"
1!
0/
12
1;
09
07
1>
1?
1A
0:
#495000
1"
0!
1/
02
0;
19
17
0>
0?
0A
1:
#500000
0"
1!
0/
12
1;
09
07
1>
1?
1A
0:
#505000
1"
0!
1%
1/
02
11
1=
0;
19
17
0>
1@
1:
#510000
0"
1!
0/
12
1;
09
07
0:
#515000
1"
0!
0%
1/
02
01
0=
0;
19
17
0?
0@
0A
1:
#520000
0"
1%
0/
11
1=
09
07
1?
1@
1A
0:
#525000
1"
1/
19
17
1:
#530000
0"
1!
0/
12
1;
09
07
0:
#535000
1"
1/
19
17
1:
#540000
0"
0/
09
07
0:
#545000
1"
0!
0%
1/
02
01
0=
0;
19
17
0?
0@
0A
1:
#550000
0"
0/
09
07
0:
#555000
1"
1/
19
17
1:
#560000
0"
0/
09
07
0:
#565000
1"
1%
1/
11
1=
19
17
1?
1@
1A
1:
#570000
0"
1!
0/
12
1;
09
07
0:
#575000
1"
0!
0%
1/
02
01
0=
0;
19
17
0?
0@
0A
1:
#580000
0"
1!
1%
0/
12
11
1=
1;
09
07
1?
1@
1A
0:
#585000
1"
0!
0%
1/
02
01
0=
0;
19
17
0?
0@
0A
1:
#590000
0"
1%
0/
11
1=
09
07
1?
1@
1A
0:
#595000
1"
0%
1/
01
0=
19
17
0?
0@
0A
1:
#600000
0"
1!
0/
12
1;
09
07
1>
1?
1A
0:
#605000
1"
1%
1/
11
1=
19
17
0>
1@
1:
#610000
0"
0!
0/
02
0;
09
07
0:
#615000
1"
1!
1/
12
1;
19
17
1:
#620000
0"
0!
0%
0/
02
01
0=
0;
09
07
0?
0@
0A
0:
#625000
1"
1%
1/
11
1=
19
17
1?
1@
1A
1:
#630000
0"
0%
0/
01
0=
09
07
0?
0@
0A
0:
#635000
1"
1%
1/
11
1=
19
17
1?
1@
1A
1:
#640000
0"
0%
1!
0/
01
12
1;
0=
09
07
0@
1>
0:
#645000
1"
0!
1/
02
0;
19
17
0>
0?
0A
1:
#650000
0"
0/
09
07
0:
#655000
1"
1!
1/
12
1;
19
17
1>
1?
1A
1:
#660000
0"
1%
0/
11
1=
09
07
0>
1@
0:
#665000
1"
0%
1/
01
0=
19
17
1>
0@
1:
#670000
0"
1%
0!
0/
11
02
0;
1=
09
07
1@
0>
0:
#675000
1"
1!
1/
12
1;
19
17
1:
#680000
0"
0/
09
07
0:
#685000
1"
0!
1/
02
0;
19
17
1:
#690000
0"
1!
0%
0/
12
01
0=
1;
09
07
1>
0@
0:
#695000
1"
0!
1%
1/
02
11
1=
0;
19
17
0>
1@
1:
#700000
0"
1!
0/
12
1;
09
07
0:
#705000
1"
0%
1/
01
0=
19
17
1>
0@
1:
#710000
0"
0/
09
07
0:
#715000
1"
1/
19
17
1:
#720000
0"
1%
0/
11
1=
09
07
0>
1@
0:
#725000
1"
0%
1/
01
0=
19
17
1>
0@
1:
#730000
0"
0!
0/
02
0;
09
07
0>
0?
0A
0:
#735000
1"
1!
1/
12
1;
19
17
1>
1?
1A
1:
#740000
0"
0!
0/
02
0;
09
07
0>
0?
0A
0:
#745000
1"
1!
1%
1/
12
11
1=
1;
19
17
1?
1@
1A
1:
#750000
0"
0!
0%
0/
02
01
0=
0;
09
07
0?
0@
0A
0:
#755000
1"
1!
1/
12
1;
19
17
1>
1?
1A
1:
#760000
0"
1%
0/
11
1=
09
07
0>
1@
0:
#765000
1"
1/
19
17
1:
#770000
0"
0/
09
07
0:
#775000
1"
1/
19
17
1:
#780000
0"
0%
0/
01
0=
09
07
1>
0@
0:
#785000
1"
1/
19
17
1:
#790000
0"
1%
0/
11
1=
09
07
0>
1@
0:
#795000
1"
0%
0!
1/
01
02
0;
0=
19
17
0@
0?
0A
1:
#800000
0"
1!
0/
12
1;
09
07
1>
1?
1A
0:
#805000
1"
1/
19
17
1:
#810000
0"
1%
0/
11
1=
09
07
0>
1@
0:
#815000
1"
0%
0!
1/
01
02
0;
0=
19
17
0@
0?
0A
1:
#820000
0"
1%
1!
0/
11
12
1;
1=
09
07
1@
1?
1A
0:
#825000
1"
1/
19
17
1:
#830000
0"
0%
0!
0/
01
02
0;
0=
09
07
0@
0?
0A
0:
#835000
1"
1!
1/
12
1;
19
17
1>
1?
1A
1:
#840000
0"
0/
09
07
0:
#845000
1"
1%
1/
11
1=
19
17
0>
1@
1:
#850000
0"
0%
0/
01
0=
09
07
1>
0@
0:
#855000
1"
1%
0!
1/
11
02
0;
1=
19
17
1@
0>
1:
#860000
0"
0/
09
07
0:
#865000
1"
1!
1/
12
1;
19
17
1:
#870000
0"
0!
0%
0/
02
01
0=
0;
09
07
0?
0@
0A
0:
#875000
1"
1!
1%
1/
12
11
1=
1;
19
17
1?
1@
1A
1:
#880000
0"
0%
0/
01
0=
09
07
1>
0@
0:
#885000
1"
1%
0!
1/
11
02
0;
1=
19
17
1@
0>
1:
#890000
0"
0%
1!
0/
01
12
1;
0=
09
07
0@
1>
0:
#895000
1"
0!
1/
02
0;
19
17
0>
0?
0A
1:
#900000
0"
1!
0/
12
1;
09
07
1>
1?
1A
0:
#905000
1"
0!
1%
1/
02
11
1=
0;
19
17
0>
1@
1:
#910000
0"
1!
0/
12
1;
09
07
0:
#915000
1"
0%
1/
01
0=
19
17
1>
0@
1:
#920000
0"
1%
0/
11
1=
09
07
0>
1@
0:
#925000
1"
1/
19
17
1:
#930000
0"
0!
0/
02
0;
09
07
0:
#935000
1"
1/
19
17
1:
#940000
0"
0/
09
07
0:
#945000
1"
1!
1/
12
1;
19
17
1:
#950000
0"
0!
0%
0/
02
01
0=
0;
09
07
0?
0@
0A
0:
#955000
1"
1!
1%
1/
12
11
1=
1;
19
17
1?
1@
1A
1:
#960000
0"
0!
0%
0/
02
01
0=
0;
09
07
0?
0@
0A
0:
#965000
1"
1!
1/
12
1;
19
17
1>
1?
1A
1:
#970000
0"
0/
09
07
0:
#975000
1"
0!
1/
02
0;
19
17
0>
0?
0A
1:
#980000
0"
1!
0/
12
1;
09
07
1>
1?
1A
0:
#985000
1"
1/
19
17
1:
#990000
0"
0!
1%
0/
02
11
1=
0;
09
07
0>
1@
0:
#995000
1"
1/
19
17
1:
